ip,port,c_code,country,type,last_checked
79.115.245.227,8080,RO,Romania,elite proxy,8 seconds ago
37.15.209.150,53281,ES,Spain,elite proxy,8 seconds ago
138.97.233.36,50588,BR,Brazil,elite proxy,8 seconds ago
89.185.204.188,57914,MK,Macedonia,elite proxy,8 seconds ago
45.6.95.10,32085,BR,Brazil,elite proxy,8 seconds ago
43.229.73.231,34313,IN,India,elite proxy,8 seconds ago
176.241.89.36,38170,IQ,Iraq,elite proxy,8 seconds ago
84.22.59.202,8080,RS,Serbia,anonymous,8 seconds ago
176.101.89.226,33470,RU,Russian Federation,elite proxy,8 seconds ago
103.56.207.6,3127,ID,Indonesia,anonymous,1 minute ago
114.6.227.28,8080,ID,Indonesia,elite proxy,1 minute ago
191.7.208.83,50626,BR,Brazil,elite proxy,8 seconds ago
86.110.189.118,56710,RU,Russian Federation,elite proxy,1 minute ago
94.236.198.183,41258,BG,Bulgaria,elite proxy,1 minute ago
115.160.21.243,8080,KR,Korea,elite proxy,1 minute ago
212.67.0.150,33171,RU,Russian Federation,elite proxy,1 minute ago
103.106.119.154,8080,BD,Bangladesh,elite proxy,1 minute ago
125.25.80.39,42790,TH,Thailand,elite proxy,3 minutes ago
124.248.189.45,8080,KH,Cambodia,elite proxy,3 minutes ago
187.190.237.17,32509,MX,Mexico,elite proxy,3 minutes ago
89.218.133.170,60595,KZ,Kazakhstan,elite proxy,3 minutes ago
43.229.27.68,59220,IN,India,elite proxy,3 minutes ago
151.253.165.70,8080,AE,United Arab Emirates,elite proxy,10 minutes ago
94.232.79.168,41258,UA,Ukraine,elite proxy,10 minutes ago
36.89.190.57,40971,ID,Indonesia,elite proxy,10 minutes ago
95.131.91.130,60944,RU,Russian Federation,elite proxy,10 minutes ago
125.18.107.201,41516,IN,India,elite proxy,10 minutes ago
46.130.249.18,42010,AM,Armenia,elite proxy,10 minutes ago
95.66.194.44,8080,RU,Russian Federation,elite proxy,10 minutes ago
117.4.107.199,38263,VN,Vietnam,elite proxy,10 minutes ago
165.227.8.105,3128,US,United States,elite proxy,10 minutes ago
45.112.56.142,51618,IN,India,elite proxy,11 minutes ago
103.251.57.23,60083,IN,India,elite proxy,11 minutes ago
213.110.122.220,56871,UA,Ukraine,elite proxy,12 minutes ago
176.98.75.229,54256,UA,Ukraine,elite proxy,12 minutes ago
122.102.41.82,55783,ID,Indonesia,elite proxy,12 minutes ago
190.60.103.178,8080,CO,Colombia,elite proxy,14 minutes ago
103.250.157.38,45879,IN,India,elite proxy,14 minutes ago
182.73.56.134,49235,IN,India,elite proxy,14 minutes ago
198.211.96.170,3128,US,United States,elite proxy,14 minutes ago
201.236.248.216,52006,CO,Colombia,elite proxy,22 minutes ago
208.98.185.89,53630,US,United States,elite proxy,22 minutes ago
118.172.51.110,36552,TH,Thailand,elite proxy,22 minutes ago
96.9.72.241,51738,KH,Cambodia,elite proxy,22 minutes ago
103.21.160.124,35101,IN,India,elite proxy,22 minutes ago
175.201.248.124,11111,KR,Korea,elite proxy,22 minutes ago
191.103.254.125,51869,CO,Colombia,elite proxy,23 minutes ago
103.94.7.254,53281,ID,Indonesia,elite proxy,23 minutes ago
110.74.222.213,52733,KH,Cambodia,elite proxy,23 minutes ago
118.174.196.216,59603,TH,Thailand,anonymous,23 minutes ago
154.127.120.18,30280,ZA,South Africa,elite proxy,23 minutes ago
103.101.56.29,31471,IN,India,elite proxy,25 minutes ago
129.205.135.171,46696,ZA,South Africa,elite proxy,23 minutes ago
190.122.97.138,52622,DO,Dominican Republic,elite proxy,25 minutes ago
14.207.129.187,8080,TH,Thailand,anonymous,32 minutes ago
109.172.57.250,23500,RU,Russian Federation,anonymous,32 minutes ago
103.103.192.230,80,ID,Indonesia,anonymous,32 minutes ago
157.230.240.139,8080,SG,Singapore,anonymous,32 minutes ago
165.227.8.105,3128,US,United States,elite proxy,30 minutes ago
136.25.2.43,30936,US,United States,elite proxy,23 minutes ago
198.50.152.64,23500,US,United States,elite proxy,52 minutes ago
208.98.185.89,53630,US,United States,elite proxy,42 minutes ago
191.96.42.184,3129,US,United States,elite proxy,1 hour 11 minutes ago
198.23.143.11,8080,US,United States,elite proxy,1 hour 1 minute ago
167.172.140.184,3128,US,United States,anonymous,1 hour 24 minutes ago
191.96.42.82,3129,US,United States,elite proxy,1 hour 24 minutes ago
34.213.184.205,3128,US,United States,anonymous,1 hour 24 minutes ago
206.189.229.46,3128,US,United States,elite proxy,1 hour 42 minutes ago
159.89.151.109,8080,US,United States,anonymous,1 hour 51 minutes ago
104.248.8.101,8080,US,United States,anonymous,1 hour 51 minutes ago
167.172.238.168,8080,US,United States,anonymous,1 hour 51 minutes ago
167.71.103.168,3128,US,United States,anonymous,1 hour 51 minutes ago
34.210.201.20,80,US,United States,anonymous,1 hour 42 minutes ago
159.65.109.226,8080,US,United States,anonymous,1 hour 51 minutes ago
159.89.232.144,8080,US,United States,anonymous,1 hour 51 minutes ago
209.90.63.108,80,US,United States,anonymous,2 hours 20 minutes ago
34.65.47.49,8080,US,United States,anonymous,2 hours 34 minutes ago
198.98.54.241,8080,US,United States,anonymous,2 hours 34 minutes ago
198.98.51.240,8080,US,United States,anonymous,2 hours 51 minutes ago
198.98.58.178,8080,US,United States,anonymous,3 hours 20 minutes ago
198.98.56.71,8080,US,United States,anonymous,3 hours 20 minutes ago
216.198.188.26,51068,US,United States,elite proxy,3 hours 34 minutes ago
157.52.184.2,3129,US,United States,elite proxy,3 hours 44 minutes ago
